 [
        {
            "formatted_address": "12881 Pond Springs Rd, Austin, TX 78729, USA",
            "name": "Red Barn Garden Center",
            "rating": 4.8,
            "hours": "9-5"
        }
        {
            "formatted_address": "2710 Hancock Dr, Austin, TX 78731, USA",
            "name": "Shoal Creek Nursery",
            "rating": 4.6,
            "hours": "9-5"
        },
        {
            "formatted_address": "3601 Bee Caves Rd, Austin, TX 78746, USA",
            "name": "Barton Springs Nursery",
            "rating": 4.6,
            "hours": "9-5"
        },
        {
            "formatted_address": "8648 Old Bee Caves Road, Austin, TX 78735, USA",
            "name": "The Natural Gardener",
            "rating": 4.7,
            "hours": "9-5"
        },
        {
            "formatted_address": "13292 Pond Springs Road #A, Austin, TX 78729, United States",
            "name": "Countryside Nursery and Landscape",
            "rating": 3.9,
            "hours": "9-5"
        },
        {
            "formatted_address": "2730 S Congress Ave, Austin, TX 78704, USA",
            "name": "The Great Outdoors",
            "rating": 4.8,
            "hours": "9-5"
        },
        {
            "formatted_address": "1211 W Lynn St, Austin, TX 78703, USA",
            "name": "Sledd Nursery",
            "rating": 3.7,
            "hours": "9-5"
        },
        {
            "formatted_address": "801 Tillery St, Austin, TX 78702, USA",
            "name": "Tillery Street Plant Co.",
            "rating": 4.7,
            "hours": "9-5"
        },
        {
            "formatted_address": "15403 Farm to Market Rd 1325, Austin, TX 78728, USA",
            "name": "Newton Nursery Austin (Wholesale)",
            "rating": 3.8,
            "hours": "9-5"
        },
        {
            "formatted_address": "507-A W Mary St, Austin, TX 78704, USA",
            "name": "Frond Plant Shop",
            "rating": 4.8,
            "hours": "9-5"
        },
        {
            "formatted_address": "801 Tillery St, Austin, TX 78702, USA",
            "name": "East Austin Succulents",
            "rating": 4.6,
            "hours": "9-5"
        },
        {
            "formatted_address": "3306 E Cesar Chavez St, Austin, TX 78702, USA",
            "name": "Austin Plant Supply",
            "rating": 5,
            "hours": "9-5"
        },
        {
            "formatted_address": "10944 Fitzhugh Rd, Austin, TX 78736, USA",
            "name": "Copper Rock Nursery",
            "rating": 5,
            "hours": "9-5"
        },
        {
            "formatted_address": "1515 West 35th Street, Building B, Austin, TX 78703, United States",
            "name": "Thompson + Hanson Garden House",
            "rating": 5,
            "hours": "9-5"
        },
        {
            "formatted_address": "6305 Wilcab Rd, Austin, TX 78721, USA",
            "name": "Bamboo Your Privacy",
            "rating": 4.6,
            "hours": "9-5"
        },
        {
            "formatted_address": "11726 Manchaca Rd, Austin, TX 78748, USA",
            "name": "It's About Thyme",
            "rating": 4.7,
            "hours": "9-5"
        },
        {
            "formatted_address": "4131 Spicewood Springs Rd, Austin, TX 78759, USA",
            "name": "Austin Tree Farm",
            "rating": 3,
            "hours": "9-5"
        },
        {
            "formatted_address": "1501 FM973, Austin, TX 78725, USA",
            "name": "Barton Springs Nursery",
            "rating": 4,
            "hours": "9-5"
        },
        {
            "formatted_address": "5700 W Highway 290, Austin, TX 78735, United States",
            "name": "Leaf Landscape Supply",
            "rating": 5,
            "hours": "9-5"
        },
        {
            "formatted_address": "12000 US-290, Austin, TX 78737, USA",
            "name": "Vivero Growers Nursery",
            "rating": 4.7,
            "hours": "9-5"
        }
]

